<?xml version="1.0" encoding="UTF-8" standalone="no"?>
<!DOCTYPE svg PUBLIC "-//W3C//DTD SVG 1.1//EN" "http://www.w3.org/Graphics/SVG/1.1/DTD/svg11.dtd">
<svg width="100%" height="100%" viewBox="0 0 170 63" version="1.1" xmlns="http://www.w3.org/2000/svg" xmlns:xlink="http://www.w3.org/1999/xlink" xml:space="preserve" xmlns:serif="http://www.serif.com/" style="fill-rule:evenodd;clip-rule:evenodd;stroke-linejoin:round;stroke-miterlimit:1.41421;">
    <g transform="matrix(1,0,0,1,-1497.76,-314.85)">
        <g transform="matrix(0.435268,0,0,0.504545,838.548,153.08)">
            <g transform="matrix(0.644839,0,0,0.556299,1138.02,140.098)">
                <path d="M629.989,546.478L583.814,546.478L583.814,517.365C583.814,513.344 586.992,510.086 590.917,510.086L689.421,510.086C686.207,519.28 680.307,527.151 672.679,532.718C672.066,533.153 671.453,533.578 670.83,533.993C659.105,541.887 645.072,546.478 629.989,546.478ZM1156.28,504.23L1136.4,504.23L1146.34,479.595L1123.09,418.644L1143.07,418.644L1155.83,455.884L1167.79,418.644L1187.66,418.644L1156.28,504.23ZM1040.58,504.23L1021.84,504.23L1021.84,418.644L1039.45,418.644L1039.45,425.699C1043.51,420.839 1049.72,416.447 1059.32,416.447C1081.55,416.447 1089.91,436.455 1089.91,451.374C1089.91,469.879 1077.27,485.031 1059.43,485.031C1048.14,485.031 1042.84,479.477 1040.58,477.051L1040.58,504.23ZM750.435,488.252L640.721,488.252L640.721,324.516C706.61,324.516 760.183,378.587 761.429,445.791C761.44,445.881 761.44,445.971 761.44,446.06C761.463,446.778 761.473,447.506 761.473,448.234C761.473,448.962 761.463,449.691 761.44,450.408C761.44,450.607 761.429,450.809 761.429,451.012C760.948,464.64 756.992,477.36 750.435,488.252ZM865.171,482.832L847.333,482.832L847.333,475.893C845.528,478.553 841.014,484.914 828.367,484.914C809.405,484.914 796.986,469.88 796.986,450.566C796.986,428.82 812.115,416.445 828.029,416.445C839.092,416.445 844.399,421.997 846.428,424.079L846.428,397.247L865.171,397.247L865.171,482.832ZM947.115,450.566C947.115,434.951 958.065,416.562 980.868,416.562C1003.67,416.562 1014.62,434.951 1014.62,450.68C1014.62,466.41 1003.67,484.8 980.868,484.8C958.065,484.8 947.115,466.41 947.115,450.68L947.115,450.566ZM872.39,450.566C872.39,434.951 883.341,416.562 906.143,416.562C928.946,416.562 939.894,434.951 939.894,450.68C939.894,466.41 928.946,484.8 906.143,484.8C883.341,484.8 872.39,466.41 872.39,450.68L872.39,450.566ZM1115.87,397.247L1115.87,482.833L1097.13,482.833L1097.13,397.247L1115.87,397.247ZM1071.17,450.68C1071.17,443.162 1065.75,434.373 1055.48,434.373C1050.97,434.373 1047.01,436.222 1044.19,439.231C1041.48,442.122 1039.79,446.284 1039.79,450.911C1039.79,455.423 1041.48,459.469 1044.3,462.363C1047.13,465.254 1051.08,467.101 1055.48,467.101C1065.3,467.101 1071.17,458.893 1071.17,450.798L1071.17,450.68ZM815.727,450.566C815.727,460.397 822.613,466.986 831.416,466.986C835.933,466.986 840.109,465.137 843.044,462.13C845.98,459.124 847.673,454.96 847.448,450.218C847.448,445.592 845.641,441.659 842.817,438.881C839.997,435.992 836.045,434.373 831.643,434.373C820.806,434.373 815.727,443.047 815.727,450.448L815.727,450.566ZM965.854,450.797C965.854,460.049 972.74,466.872 980.868,466.872C988.996,466.872 995.88,460.049 995.88,450.68C995.88,441.312 988.996,434.487 980.868,434.487C972.74,434.487 965.854,441.312 965.854,450.68L965.854,450.797ZM891.129,450.797C891.129,460.049 898.015,466.872 906.143,466.872C914.272,466.872 921.156,460.049 921.156,450.68C921.156,441.312 914.272,434.487 906.143,434.487C898.015,434.487 891.129,441.312 891.129,450.68L891.129,450.797Z" style="fill:white;fill-opacity:0.98;fill-rule:nonzero;"/>
            </g>
        </g>
    </g>
</svg>
